…
``` r

# daily sapflow standard metrics
arg_maz_metrics <- daily_metrics(ARG_MAZ)
#> [1] "Crunching data for ARG_MAZ. In large datasets this could take a while"
#> [1] "General data for ARG_MAZ"
#> [1] "Predawn data for ARG_MAZ"
#> [1] "Midday data for ARG_MAZ"

# tidy results
arg_maz_tidy <- metrics_tidyfier(arg_maz_metrics, sfn_metadata_ex)
arg_maz_tidy
#> # A tibble: 65 x 188
#>    TIMESTAMP           si_code pl_code   sapflow_centroid sapflow_coverage
#>    <dttm>              <chr>   <chr>                <dbl>            <dbl>
#>  1 2009-11-18 00:00:00 ARG_MAZ ARG_MAZ_…             17.8             100.
#>  2 2009-11-18 00:00:00 ARG_MAZ ARG_MAZ_…             18.0             100.
#>  3 2009-11-18 00:00:00 ARG_MAZ ARG_MAZ_…             17.5             100.
#>  4 2009-11-18 00:00:00 ARG_MAZ ARG_MAZ_…             17.8             100.
#>  5 2009-11-18 00:00:00 ARG_MAZ ARG_MAZ_…             18.0             100.
#>  6 2009-11-19 00:00:00 ARG_MAZ ARG_MAZ_…             13.3             100.
#>  7 2009-11-19 00:00:00 ARG_MAZ ARG_MAZ_…             13.0             100.
#>  8 2009-11-19 00:00:00 ARG_MAZ ARG_MAZ_…             13.2             100.
#>  9 2009-11-19 00:00:00 ARG_MAZ ARG_MAZ_…             13.3             100.
#> 10 2009-11-19 00:00:00 ARG_MAZ ARG_MAZ_…             13.2             100.
#> # ... with 55 more rows, and 183 more variables: sapflow_max <dbl>,
#> #   sapflow_max_time <dttm>, sapflow_mean <dbl>, sapflow_min <dbl>,
#> #   sapflow_min_time <dttm>, sapflow_n <dbl>, sapflow_q_95 <dbl>,
#> #   sapflow_q_99 <dbl>, sapflow_sd <dbl>, ta_mean <dbl>, rh_mean <dbl>,
#> #   vpd_mean <dbl>, sw_in_mean <dbl>, ws_mean <dbl>, precip_mean <dbl>,
#> #   swc_shallow_mean <dbl>, ppfd_in_mean <dbl>, ext_rad_mean <dbl>,
#> #   ta_sd <dbl>, rh_sd <dbl>, vpd_sd <dbl>, sw_in_sd <dbl>, ws_sd <dbl>,
#> #   precip_sd <dbl>, swc_shallow_sd <dbl>, ppfd_in_sd <dbl>,
#> #   ext_rad_sd <dbl>, ta_n <int>, rh_n <int>, vpd_n <int>, sw_in_n <int>,
…
# tidy results
multi_tidy <- metrics_tidyfier(multi_metrics, sfn_metadata_ex)
multi_tidy
#> # A tibble: 12,769 x 188
#>    TIMESTAMP           si_code  pl_code  sapflow_centroid sapflow_coverage
#>    <dttm>              <chr>    <chr>               <dbl>            <dbl>
#>  1 2006-06-20 00:00:00 AUS_CAN… AUS_CAN…              NaN               0.
#>  2 2006-06-20 00:00:00 AUS_CAN… AUS_CAN…              NaN               0.
#>  3 2006-06-20 00:00:00 AUS_CAN… AUS_CAN…              NaN               0.
#>  4 2006-06-20 00:00:00 AUS_CAN… AUS_CAN…              NaN               0.
#>  5 2006-06-20 00:00:00 AUS_CAN… AUS_CAN…              NaN               0.
#>  6 2006-06-20 00:00:00 AUS_CAN… AUS_CAN…              NaN               0.
#>  7 2006-06-20 00:00:00 AUS_CAN… AUS_CAN…              NaN               0.
#>  8 2006-06-20 00:00:00 AUS_CAN… AUS_CAN…              NaN               0.
#>  9 2006-06-20 00:00:00 AUS_CAN… AUS_CAN…              NaN               0.
#> 10 2006-06-20 00:00:00 AUS_CAN… AUS_CAN…              NaN               0.
#> # ... with 12,759 more rows, and 183 more variables: sapflow_max <dbl>,
#> #   sapflow_max_time <dttm>, sapflow_mean <dbl>, sapflow_min <dbl>,
#> #   sapflow_min_time <dttm>, sapflow_n <dbl>, sapflow_q_95 <dbl>,
#> #   sapflow_q_99 <dbl>, sapflow_sd <dbl>, ta_mean <dbl>, rh_mean <dbl>,
#> #   vpd_mean <dbl>, sw_in_mean <dbl>, ws_mean <dbl>, precip_mean <dbl>,
#> #   swc_shallow_mean <dbl>, ppfd_in_mean <dbl>, ext_rad_mean <dbl>,
#> #   ta_sd <dbl>, rh_sd <dbl>, vpd_sd <dbl>, sw_in_sd <dbl>, ws_sd <dbl>,
#> #   precip_sd <dbl>, swc_shallow_sd <dbl>, ppfd_in_sd <dbl>,
#> #   ext_rad_sd <dbl>, ta_n <int>, rh_n <int>, vpd_n <int>, sw_in_n <int>,
…
