sapfluxnetr (Not So) Quick Guide • sapfluxnetr
…
First thing we have to do is creating a metadata database. It is not mandatory, but filtering sites by metadata can be a very time and resources consuming step if we have to temporary build the database each time we want filter sites. So, let’s create a cached metadata database. This will take some minutes, so maybe it is a good moment to prepare a hot beverage ;)

sfn_metadata <- read_sfn_metadata(folder = 'RData/plant', .write_cache = TRUE)

#> [1] "processing site ARG_MAZ (1 of 3)"
#> [1] "processing site ARG_TRE (2 of 3)"
#> [1] "processing site AUS_CAN_ST2_MIX (3 of 3)"

The important bit here is .write_cache = TRUE. This will write a file called .metadata_cache.RData containing all the metadata for all sites present in folder. This file will be used any time we will filter the metadata, so there is no need of accessing all the data again.

If we take a look at sfn_metadata we can see a list with 5 data frames, one for each metadata class (site, stand, species, plant and environmental metadata).

# access plant metadata
sfn_metadata[['plant_md']]
#> # A tibble: 43 x 26
#>    pl_age pl_azimut_int pl_bark_thick pl_code pl_dbh pl_height pl_leaf_area
#>     <dbl> <chr>                 <dbl> <chr>    <dbl>     <dbl>        <dbl>
#>  1  180   Corrected, m…          14.7 ARG_MA…   41.1      NA          109. 
#>  2  180   No azimuthal…          13   ARG_MA…   33.2      NA           58.4
#>  3  180   No azimuthal…           6   ARG_MA…   23.2      NA           35.0
#>  4  180   No azimuthal…          21   ARG_MA…   55.6      NA          174. 
#>  5  180   No azimuthal…          10   ARG_MA…   38        NA           88  
#>  6  140   Corrected, m…          23.5 ARG_TR…   23.6      NA           29.7
#>  7  140   No azimuthal…          22.5 ARG_TR…   20.2      NA           13.0
#>  8  140   No azimuthal…          22   ARG_TR…   23.8      NA           29.8
#>  9  140   No azimuthal…          23.5 ARG_TR…   19.5      NA           15.1
#> 10   14.5 No azimuthal…          NA   AUS_CA…   13.1      14.3         NA  
#> # … with 33 more rows, and 19 more variables: pl_name <chr>,
#> #   pl_radial_int <chr>, pl_remarks <chr>, pl_sap_units <chr>,
#> #   pl_sapw_area <dbl>, pl_sapw_depth <dbl>, pl_sens_calib <lgl>,
#> #   pl_sens_cor_grad <chr>, pl_sens_cor_zero <chr>, pl_sens_hgt <dbl>,
#> #   pl_sens_length <int>, pl_sens_man <chr>, pl_sens_meth <chr>,
#> #   pl_sens_timestep <int>, pl_social <chr>, pl_species <chr>,
#> #   pl_treatment <chr>, si_code <chr>, pl_sap_units_orig <chr>
…
Most of the times it comes in handy to have a tidy dataset with all the sap flow and environmental measurements, along with the metadata for the sites aggregated, in order to work with the data in an easier way. This can be done with the metrics_tidyfier function (see ?metrics_tidyfier). But daily_metrics and related functions also implement the tidy argument. For the tidy argument to work, we must have available the metadata, see the “metadata section” for more details about this.

This allows for returning directly a metrics data frame combining all sites aggregated along with their metadata, saving one step in the workflow:

temperate_tidy <- temperate_sites %>%
  daily_metrics(tidy = TRUE, metadata = sfn_metadata)
#> [1] "Crunching data for ARG_MAZ. In large datasets this could take a while"
#> [1] "General data for ARG_MAZ"
#> [1] "Crunching data for ARG_TRE. In large datasets this could take a while"
#> [1] "General data for ARG_TRE"
#> [1] "Crunching data for AUS_CAN_ST2_MIX. In large datasets this could take a while"
#> [1] "General data for AUS_CAN_ST2_MIX"

temperate_tidy
#> # A tibble: 12,769 x 129
#>    TIMESTAMP           si_code pl_code sapflow_centroid sapflow_coverage
#>    <dttm>              <chr>   <chr>              <dbl>            <dbl>
#>  1 2006-06-20 00:00:00 AUS_CA… AUS_CA…              NaN                0
#>  2 2006-06-20 00:00:00 AUS_CA… AUS_CA…              NaN                0
#>  3 2006-06-20 00:00:00 AUS_CA… AUS_CA…              NaN                0
#>  4 2006-06-20 00:00:00 AUS_CA… AUS_CA…              NaN                0
#>  5 2006-06-20 00:00:00 AUS_CA… AUS_CA…              NaN                0
#>  6 2006-06-20 00:00:00 AUS_CA… AUS_CA…              NaN                0
#>  7 2006-06-20 00:00:00 AUS_CA… AUS_CA…              NaN                0
#>  8 2006-06-20 00:00:00 AUS_CA… AUS_CA…              NaN                0
#>  9 2006-06-20 00:00:00 AUS_CA… AUS_CA…              NaN                0
#> 10 2006-06-20 00:00:00 AUS_CA… AUS_CA…              NaN                0
#> # … with 12,759 more rows, and 124 more variables: sapflow_mean <dbl>,
#> #   sapflow_q_95 <dbl>, sapflow_sd <dbl>, ta_mean <dbl>, rh_mean <dbl>,
#> #   vpd_mean <dbl>, sw_in_mean <dbl>, ws_mean <dbl>, precip_mean <dbl>,
#> #   swc_shallow_mean <dbl>, ppfd_in_mean <dbl>, ext_rad_mean <dbl>,
#> #   ta_sd <dbl>, rh_sd <dbl>, vpd_sd <dbl>, sw_in_sd <dbl>, ws_sd <dbl>,
#> #   precip_sd <dbl>, swc_shallow_sd <dbl>, ppfd_in_sd <dbl>,
#> #   ext_rad_sd <dbl>, ta_coverage <dbl>, rh_coverage <dbl>,
#> #   vpd_coverage <dbl>, sw_in_coverage <dbl>, ws_coverage <dbl>,
#> #   precip_coverage <dbl>, swc_shallow_coverage <dbl>,
…
