sfn_data classes • sapfluxnetr
…
#> 1    180 Corrected, m…          14.7 ARG_MA…   41.1 NA               109. 
#> 2    180 No azimuthal…          13   ARG_MA…   33.2 NA                58.4
#> 3    180 No azimuthal…           6   ARG_MA…   23.2 NA                35.0
#> 4    180 No azimuthal…          21   ARG_MA…   55.6 NA               174. 
#> 5    180 No azimuthal…          10   ARG_MA…   38   NA                88  
#> # … with 19 more variables: pl_name <chr>, pl_radial_int <chr>,
#> #   pl_remarks <lgl>, pl_sap_units <chr>, pl_sapw_area <dbl>,
#> #   pl_sapw_depth <dbl>, pl_sens_calib <lgl>, pl_sens_cor_grad <chr>,
#> #   pl_sens_cor_zero <chr>, pl_sens_hgt <dbl>, pl_sens_length <int>,
#> #   pl_sens_man <chr>, pl_sens_meth <chr>, pl_sens_timestep <int>,
#> #   pl_social <chr>, pl_species <chr>, pl_treatment <lgl>, si_code <chr>,
#> #   pl_sap_units_orig <chr>
#> 
#> $AUS_CAN_ST2_MIX
#> # A tibble: 34 x 26
#>    pl_age pl_azimut_int pl_bark_thick pl_code pl_dbh pl_height pl_leaf_area
#>     <dbl> <chr>         <lgl>         <chr>    <dbl>     <dbl> <lgl>       
#>  1   14.5 No azimuthal… NA            AUS_CA…   13.1      14.3 NA          
#>  2   14.5 No azimuthal… NA            AUS_CA…   10.4      12.9 NA          
#>  3   14.5 No azimuthal… NA            AUS_CA…   12.8      14.1 NA          
#>  4   14.5 No azimuthal… NA            AUS_CA…   17.1      19.4 NA          
#>  5   14.5 No azimuthal… NA            AUS_CA…   11.6      13.6 NA          
#>  6   14.5 No azimuthal… NA            AUS_CA…   19.2      20.5 NA          
#>  7   14.5 No azimuthal… NA            AUS_CA…   12.8      16.6 NA          
#>  8   14.5 No azimuthal… NA            AUS_CA…   12.5      14.1 NA          
#>  9   14.5 No azimuthal… NA            AUS_CA…   13.6      17.2 NA          
#> 10   14.5 No azimuthal… NA            AUS_CA…   13.8      14.7 NA          
#> # … with 24 more rows, and 19 more variables: pl_name <chr>,
#> #   pl_radial_int <chr>, pl_remarks <chr>, pl_sap_units <chr>,
#> #   pl_sapw_area <dbl>, pl_sapw_depth <dbl>, pl_sens_calib <lgl>,
#> #   pl_sens_cor_grad <lgl>, pl_sens_cor_zero <chr>, pl_sens_hgt <dbl>,
#> #   pl_sens_length <lgl>, pl_sens_man <lgl>, pl_sens_meth <chr>,
#> #   pl_sens_timestep <int>, pl_social <lgl>, pl_species <chr>,
#> #   pl_treatment <chr>, si_code <chr>, pl_sap_units_orig <chr>
# with metadata, we can collapse
get_plant_md(multi_sfn, collapse = TRUE)
#> # A tibble: 43 x 26
#>    pl_age pl_azimut_int pl_bark_thick pl_code pl_dbh pl_height pl_leaf_area
#>     <dbl> <chr>                 <dbl> <chr>    <dbl>     <dbl>        <dbl>
#>  1  140   Corrected, m…          23.5 ARG_TR…   23.6      NA           29.7
#>  2  140   No azimuthal…          22.5 ARG_TR…   20.2      NA           13.0
#>  3  140   No azimuthal…          22   ARG_TR…   23.8      NA           29.8
#>  4  140   No azimuthal…          23.5 ARG_TR…   19.5      NA           15.1
#>  5  180   Corrected, m…          14.7 ARG_MA…   41.1      NA          109. 
#>  6  180   No azimuthal…          13   ARG_MA…   33.2      NA           58.4
#>  7  180   No azimuthal…           6   ARG_MA…   23.2      NA           35.0
#>  8  180   No azimuthal…          21   ARG_MA…   55.6      NA          174. 
#>  9  180   No azimuthal…          10   ARG_MA…   38        NA           88  
#> 10   14.5 No azimuthal…          NA   AUS_CA…   13.1      14.3         NA  
#> # … with 33 more rows, and 19 more variables: pl_name <chr>,
#> #   pl_radial_int <chr>, pl_remarks <chr>, pl_sap_units <chr>,
#> #   pl_sapw_area <dbl>, pl_sapw_depth <dbl>, pl_sens_calib <lgl>,
#> #   pl_sens_cor_grad <chr>, pl_sens_cor_zero <chr>, pl_sens_hgt <dbl>,
#> #   pl_sens_length <int>, pl_sens_man <chr>, pl_sens_meth <chr>,
#> #   pl_sens_timestep <int>, pl_social <chr>, pl_species <chr>,
#> #   pl_treatment <chr>, si_code <chr>, pl_sap_units_orig <chr>
…
