Complete metrics wrappers — metrics • sapfluxnetr
…
# tidy daily metrics
ARG_TRE_daily <- daily_metrics(
  ARG_TRE, tidy = TRUE, metadata = sfn_metadata_ex
)
#> [1] "Crunching data for ARG_TRE. In large datasets this could take a while"
#> [1] "General data for ARG_TRE"
ARG_TRE_daily
#> # A tibble: 56 x 129
#>    TIMESTAMP           si_code pl_code sapflow_centroid sapflow_coverage
#>    <dttm>              <chr>   <chr>              <dbl>            <dbl>
#>  1 2009-11-17 00:00:00 ARG_TRE ARG_TR…             17.7             8.33
#>  2 2009-11-17 00:00:00 ARG_TRE ARG_TR…             17.4             8.33
#>  3 2009-11-17 00:00:00 ARG_TRE ARG_TR…             17.8             8.33
#>  4 2009-11-17 00:00:00 ARG_TRE ARG_TR…             18.9             8.33
#>  5 2009-11-18 00:00:00 ARG_TRE ARG_TR…             13.4           100   
#>  6 2009-11-18 00:00:00 ARG_TRE ARG_TR…             13.4           100   
#>  7 2009-11-18 00:00:00 ARG_TRE ARG_TR…             13.1           100   
#>  8 2009-11-18 00:00:00 ARG_TRE ARG_TR…             13.6           100   
#>  9 2009-11-19 00:00:00 ARG_TRE ARG_TR…             13.6           100   
#> 10 2009-11-19 00:00:00 ARG_TRE ARG_TR…             13.1           100   
#> # … with 46 more rows, and 124 more variables: sapflow_mean <dbl>,
#> #   sapflow_q_95 <dbl>, sapflow_sd <dbl>, ta_mean <dbl>, rh_mean <dbl>,
#> #   vpd_mean <dbl>, sw_in_mean <dbl>, ws_mean <dbl>, precip_mean <dbl>,
#> #   swc_shallow_mean <dbl>, ppfd_in_mean <dbl>, ext_rad_mean <dbl>,
#> #   ta_sd <dbl>, rh_sd <dbl>, vpd_sd <dbl>, sw_in_sd <dbl>, ws_sd <dbl>,
#> #   precip_sd <dbl>, swc_shallow_sd <dbl>, ppfd_in_sd <dbl>, ext_rad_sd <dbl>,
#> #   ta_coverage <dbl>, rh_coverage <dbl>, vpd_coverage <dbl>,
#> #   sw_in_coverage <dbl>, ws_coverage <dbl>, precip_coverage <dbl>,
#> #   swc_shallow_coverage <dbl>, ppfd_in_coverage <dbl>, ext_rad_coverage <dbl>,
…
#>   ..$ ext_rad_coverage_night  : num [1:372] 100 100 100 100 100 100 100 100 100 100 ...
#>   ..$ ta_q_95_night           : num [1:372] 9.32 10.33 12 8.61 9.12 ...
#>   ..$ vpd_q_95_night          : num [1:372] 0 0 0.1 0 0.162 ...
#>   ..$ sw_in_q_95_night        : num [1:372] 0 0 0 0 0 0 0 0 0 0 ...
#>   ..$ ws_q_95_night           : num [1:372] 0 0 0.31 0 1.5 ...
#>   ..$ precip_q_95_night       : num [1:372] 0 0 0 0.42 0 0 0 0 0 0 ...
#>   ..$ ppfd_in_q_95_night      : num [1:372] 0 0 0 0 0 0 0 0 0 0 ...
#>   ..$ rh_q_95_night           : num [1:372] 100 100 100 100 95.8 ...
#>   ..$ ext_rad_q_95_night      : num [1:372] 0 0 0 0 0 0 0 0 0 0 ...
#>   ..$ precip_accumulated_night: num [1:372] 0 0 0 1.2 0 0 0 0 0 0 ...
#>   ..- attr(*, "index_quo")= language ~TIMESTAMP
#>   .. ..- attr(*, ".Environment")=<environment: 0x55ce0da7b5a0> 
#>   ..- attr(*, "index_time_zone")= chr "UTC"
AUS_CAN_ST2_MIX_night[['sapf']]
#> # A tibble: 372 x 171
#>    TIMESTAMP_night     AUS_CAN_ST2_MIX… AUS_CAN_ST2_MIX… AUS_CAN_ST2_MIX…
#>    <dttm>                         <dbl>            <dbl>            <dbl>
#>  1 2006-06-20 20:00:00             NaN              NaN              NaN 
#>  2 2006-06-21 20:00:00             NaN              NaN              NaN 
#>  3 2006-06-22 20:00:00             116.             242.             268.
#>  4 2006-06-23 20:00:00             110.             211.             164.
#>  5 2006-06-24 20:00:00             124.             279.             243.
#>  6 2006-06-25 20:00:00             105.             257.             201.
#>  7 2006-06-26 20:00:00             109.             239.             171.
#>  8 2006-06-27 20:00:00             124.             256.             224.
#>  9 2006-06-28 20:00:00             113.             254.             206.
#> 10 2006-06-29 20:00:00             115.             264.             219.
#> # … with 362 more rows, and 167 more variables:
#> #   AUS_CAN_ST2_MIX_Egl_Js_4_mean_night <dbl>,
#> #   AUS_CAN_ST2_MIX_Egl_Js_5_mean_night <dbl>,
#> #   AUS_CAN_ST2_MIX_Ame_Js_6_mean_night <dbl>,
#> #   AUS_CAN_ST2_MIX_Ame_Js_7_mean_night <dbl>,
#> #   AUS_CAN_ST2_MIX_Egl_Js_8_mean_night <dbl>,
#> #   AUS_CAN_ST2_MIX_Egl_Js_9_mean_night <dbl>,
#> #   AUS_CAN_ST2_MIX_Ame_Js_10_mean_night <dbl>,
#> #   AUS_CAN_ST2_MIX_Ame_Js_11_mean_night <dbl>,
…
#> #   AUS_CAN_ST2_MIX_Ame_Js_23_coverage_night <dbl>,
#> #   AUS_CAN_ST2_MIX_Egl_Js_24_coverage_night <dbl>,
#> #   AUS_CAN_ST2_MIX_Ame_Js_25_coverage_night <dbl>,
#> #   AUS_CAN_ST2_MIX_Egl_Js_26_coverage_night <dbl>,
#> #   AUS_CAN_ST2_MIX_Ame_Js_27_coverage_night <dbl>,
#> #   AUS_CAN_ST2_MIX_Egl_Js_28_coverage_night <dbl>,
#> #   AUS_CAN_ST2_MIX_Ame_Js_29_coverage_night <dbl>,
#> #   AUS_CAN_ST2_MIX_Egl_Js_30_coverage_night <dbl>,
#> #   AUS_CAN_ST2_MIX_Ame_Js_31_coverage_night <dbl>,
#> #   AUS_CAN_ST2_MIX_Egl_Js_32_coverage_night <dbl>,
#> #   AUS_CAN_ST2_MIX_Ame_Js_33_coverage_night <dbl>,
#> #   AUS_CAN_ST2_MIX_Egl_Js_34_coverage_night <dbl>,
#> #   AUS_CAN_ST2_MIX_Ame_Js_1_q_95_night <dbl>, …
AUS_CAN_ST2_MIX_night[['env']]
#> # A tibble: 372 x 34
#>    TIMESTAMP_night     ta_mean_night vpd_mean_night sw_in_mean_night
#>    <dttm>                      <dbl>          <dbl>            <dbl>
#>  1 2006-06-20 20:00:00          7.86        0                      0
#>  2 2006-06-21 20:00:00          8.60        0                      0
#>  3 2006-06-22 20:00:00         10.0         0.0181                 0
#>  4 2006-06-23 20:00:00          8.04        0                      0
#>  5 2006-06-24 20:00:00          8.72        0.108                  0
#>  6 2006-06-25 20:00:00          6.78        0.00169                0
#>  7 2006-06-26 20:00:00          1.03        0                      0
#>  8 2006-06-27 20:00:00          3.15        0                      0
#>  9 2006-06-28 20:00:00          3.10        0                      0
#> 10 2006-06-29 20:00:00          1.80        0                      0
#> # … with 362 more rows, and 30 more variables: ws_mean_night <dbl>,
#> #   precip_mean_night <dbl>, ppfd_in_mean_night <dbl>, rh_mean_night <dbl>,
#> #   ext_rad_mean_night <dbl>, ta_sd_night <dbl>, vpd_sd_night <dbl>,
#> #   sw_in_sd_night <dbl>, ws_sd_night <dbl>, precip_sd_night <dbl>,
#> #   ppfd_in_sd_night <dbl>, rh_sd_night <dbl>, ext_rad_sd_night <dbl>,
#> #   ta_coverage_night <dbl>, vpd_coverage_night <dbl>,
#> #   sw_in_coverage_night <dbl>, ws_coverage_night <dbl>,
#> #   precip_coverage_night <dbl>, ppfd_in_coverage_night <dbl>,
#> #   rh_coverage_night <dbl>, ext_rad_coverage_night <dbl>, ta_q_95_night <dbl>,
#> #   vpd_q_95_night <dbl>, sw_in_q_95_night <dbl>, ws_q_95_night <dbl>,
#> #   precip_q_95_night <dbl>, ppfd_in_q_95_night <dbl>, rh_q_95_night <dbl>,
#> #   ext_rad_q_95_night <dbl>, precip_accumulated_night <dbl>

# change the night interval
AUS_CAN_ST2_MIX_night_short <- nightly_metrics(
  AUS_CAN_ST2_MIX, int_start = 21, int_end = 4 # night starting and ending hour
)
#> [1] "Crunching data for AUS_CAN_ST2_MIX. In large datasets this could take a while"
#> [1] "Nighttime data for AUS_CAN_ST2_MIX"
AUS_CAN_ST2_MIX_night_short[['env']]
#> # A tibble: 372 x 34
#>    TIMESTAMP_night     ta_mean_night vpd_mean_night sw_in_mean_night
#>    <dttm>                      <dbl>          <dbl>            <dbl>
#>  1 2006-06-20 21:00:00          7.91        0                      0
#>  2 2006-06-21 21:00:00          8.72        0                      0
#>  3 2006-06-22 21:00:00         10.2         0.0259                 0
#>  4 2006-06-23 21:00:00          8.19        0                      0
#>  5 2006-06-24 21:00:00          8.72        0.105                  0
#>  6 2006-06-25 21:00:00          6.9         0.00241                0
#>  7 2006-06-26 21:00:00          1.03        0                      0
#>  8 2006-06-27 21:00:00          3.46        0                      0
#>  9 2006-06-28 21:00:00          3.19        0                      0
#> 10 2006-06-29 21:00:00          1.71        0                      0
#> # … with 362 more rows, and 30 more variables: ws_mean_night <dbl>,
#> #   precip_mean_night <dbl>, ppfd_in_mean_night <dbl>, rh_mean_night <dbl>,
#> #   ext_rad_mean_night <dbl>, ta_sd_night <dbl>, vpd_sd_night <dbl>,
#> #   sw_in_sd_night <dbl>, ws_sd_night <dbl>, precip_sd_night <dbl>,
#> #   ppfd_in_sd_night <dbl>, rh_sd_night <dbl>, ext_rad_sd_night <dbl>,
#> #   ta_coverage_night <dbl>, vpd_coverage_night <dbl>,
#> #   sw_in_coverage_night <dbl>, ws_coverage_night <dbl>,
#> #   precip_coverage_night <dbl>, ppfd_in_coverage_night <dbl>,
#> #   rh_coverage_night <dbl>, ext_rad_coverage_night <dbl>, ta_q_95_night <dbl>,
#> #   vpd_q_95_night <dbl>, sw_in_q_95_night <dbl>, ws_q_95_night <dbl>,
#> #   precip_q_95_night <dbl>, ppfd_in_q_95_night <dbl>, rh_q_95_night <dbl>,
#> #   ext_rad_q_95_night <dbl>, precip_accumulated_night <dbl>

# tidy nightly metrics
data('sfn_metadata_ex', package = 'sapfluxnetr')
AUS_CAN_ST2_MIX_night_tidy <- nightly_metrics(
  AUS_CAN_ST2_MIX,
  tidy = TRUE, metadata = sfn_metadata_ex
)
#> [1] "Crunching data for AUS_CAN_ST2_MIX. In large datasets this could take a while"
#> [1] "Nighttime data for AUS_CAN_ST2_MIX"
AUS_CAN_ST2_MIX_night_tidy
#> # A tibble: 12,648 x 125
#>    TIMESTAMP_night     si_code pl_code sapflow_centroi… sapflow_coverag…
#>    <dttm>              <chr>   <chr>              <dbl>            <dbl>
#>  1 2006-06-20 20:00:00 AUS_CA… AUS_CA…              NaN                0
#>  2 2006-06-20 20:00:00 AUS_CA… AUS_CA…              NaN                0
#>  3 2006-06-20 20:00:00 AUS_CA… AUS_CA…              NaN                0
#>  4 2006-06-20 20:00:00 AUS_CA… AUS_CA…              NaN                0
#>  5 2006-06-20 20:00:00 AUS_CA… AUS_CA…              NaN                0
#>  6 2006-06-20 20:00:00 AUS_CA… AUS_CA…              NaN                0
#>  7 2006-06-20 20:00:00 AUS_CA… AUS_CA…              NaN                0
#>  8 2006-06-20 20:00:00 AUS_CA… AUS_CA…              NaN                0
#>  9 2006-06-20 20:00:00 AUS_CA… AUS_CA…              NaN                0
#> 10 2006-06-20 20:00:00 AUS_CA… AUS_CA…              NaN                0
#> # … with 12,638 more rows, and 120 more variables: sapflow_mean_night <dbl>,
#> #   sapflow_q_95_night <dbl>, sapflow_sd_night <dbl>, ta_mean_night <dbl>,
#> #   vpd_mean_night <dbl>, sw_in_mean_night <dbl>, ws_mean_night <dbl>,
#> #   precip_mean_night <dbl>, ppfd_in_mean_night <dbl>, rh_mean_night <dbl>,
#> #   ext_rad_mean_night <dbl>, ta_sd_night <dbl>, vpd_sd_night <dbl>,
#> #   sw_in_sd_night <dbl>, ws_sd_night <dbl>, precip_sd_night <dbl>,
#> #   ppfd_in_sd_night <dbl>, rh_sd_night <dbl>, ext_rad_sd_night <dbl>,
#> #   ta_coverage_night <dbl>, vpd_coverage_night <dbl>,
#> #   sw_in_coverage_night <dbl>, ws_coverage_night <dbl>,
…
#>   ..$ ext_rad_coverage_daylight  : num [1:372] 67.9 100 100 100 100 ...
#>   ..$ ta_q_95_daylight           : num [1:372] 14.6 16.2 16.7 15.9 13.3 ...
#>   ..$ vpd_q_95_daylight          : num [1:372] 0.349 0.609 0.376 0.366 0.477 ...
#>   ..$ sw_in_q_95_daylight        : num [1:372] 153 100 153 157 100 ...
#>   ..$ ws_q_95_daylight           : num [1:372] 0.1 0.665 0.9 0.43 1.565 ...
#>   ..$ precip_q_95_daylight       : num [1:372] 0 0 0 1.33 0 0 0 0 0 0 ...
#>   ..$ ppfd_in_q_95_daylight      : num [1:372] 323 212 324 332 212 ...
#>   ..$ rh_q_95_daylight           : num [1:372] 100 100 100 100 100 ...
#>   ..$ ext_rad_q_95_daylight      : num [1:372] 636 633 633 633 634 ...
#>   ..$ precip_accumulated_daylight: num [1:372] 0 0 0 6.6 0.2 0 0 0 0 0 ...
#>   ..- attr(*, "index_quo")= language ~TIMESTAMP
#>   .. ..- attr(*, ".Environment")=<environment: 0x55ce18a9d880> 
#>   ..- attr(*, "index_time_zone")= chr "UTC"
AUS_CAN_ST2_MIX_daylight[['sapf']]
#> # A tibble: 372 x 171
#>    TIMESTAMP_daylight  AUS_CAN_ST2_MIX… AUS_CAN_ST2_MIX… AUS_CAN_ST2_MIX…
#>    <dttm>                         <dbl>            <dbl>            <dbl>
#>  1 2006-06-20 00:00:00             NaN              NaN              NaN 
#>  2 2006-06-21 00:00:00             NaN              NaN              NaN 
#>  3 2006-06-22 00:00:00             208.             742.             741.
#>  4 2006-06-23 00:00:00             147.             454.             460.
#>  5 2006-06-24 00:00:00             173.             710.             464.
#>  6 2006-06-25 00:00:00             190.             691.             613.
#>  7 2006-06-26 00:00:00             170.             598.             530.
#>  8 2006-06-27 00:00:00             147.             598.             490.
#>  9 2006-06-28 00:00:00             160.             603.             534.
#> 10 2006-06-29 00:00:00             188.             705.             669.
#> # … with 362 more rows, and 167 more variables:
#> #   AUS_CAN_ST2_MIX_Egl_Js_4_mean_daylight <dbl>,
#> #   AUS_CAN_ST2_MIX_Egl_Js_5_mean_daylight <dbl>,
#> #   AUS_CAN_ST2_MIX_Ame_Js_6_mean_daylight <dbl>,
#> #   AUS_CAN_ST2_MIX_Ame_Js_7_mean_daylight <dbl>,
#> #   AUS_CAN_ST2_MIX_Egl_Js_8_mean_daylight <dbl>,
#> #   AUS_CAN_ST2_MIX_Egl_Js_9_mean_daylight <dbl>,
#> #   AUS_CAN_ST2_MIX_Ame_Js_10_mean_daylight <dbl>,
#> #   AUS_CAN_ST2_MIX_Ame_Js_11_mean_daylight <dbl>,
…
#> #   AUS_CAN_ST2_MIX_Ame_Js_23_coverage_daylight <dbl>,
#> #   AUS_CAN_ST2_MIX_Egl_Js_24_coverage_daylight <dbl>,
#> #   AUS_CAN_ST2_MIX_Ame_Js_25_coverage_daylight <dbl>,
#> #   AUS_CAN_ST2_MIX_Egl_Js_26_coverage_daylight <dbl>,
#> #   AUS_CAN_ST2_MIX_Ame_Js_27_coverage_daylight <dbl>,
#> #   AUS_CAN_ST2_MIX_Egl_Js_28_coverage_daylight <dbl>,
#> #   AUS_CAN_ST2_MIX_Ame_Js_29_coverage_daylight <dbl>,
#> #   AUS_CAN_ST2_MIX_Egl_Js_30_coverage_daylight <dbl>,
#> #   AUS_CAN_ST2_MIX_Ame_Js_31_coverage_daylight <dbl>,
#> #   AUS_CAN_ST2_MIX_Egl_Js_32_coverage_daylight <dbl>,
#> #   AUS_CAN_ST2_MIX_Ame_Js_33_coverage_daylight <dbl>,
#> #   AUS_CAN_ST2_MIX_Egl_Js_34_coverage_daylight <dbl>,
#> #   AUS_CAN_ST2_MIX_Ame_Js_1_q_95_daylight <dbl>, …
AUS_CAN_ST2_MIX_daylight[['env']]
#> # A tibble: 372 x 34
#>    TIMESTAMP_daylight  ta_mean_daylight vpd_mean_daylig… sw_in_mean_dayl…
#>    <dttm>                         <dbl>            <dbl>            <dbl>
#>  1 2006-06-20 00:00:00            12.1            0.0913             53.1
#>  2 2006-06-21 00:00:00            11.9            0.179              35.3
#>  3 2006-06-22 00:00:00            13.1            0.136              58.5
#>  4 2006-06-23 00:00:00            12.0            0.116              54.8
#>  5 2006-06-24 00:00:00            10.4            0.191              33.4
#>  6 2006-06-25 00:00:00            10.2            0.278              58.8
#>  7 2006-06-26 00:00:00             9.84           0.202              37.7
#>  8 2006-06-27 00:00:00             7.39           0.146              30.9
#>  9 2006-06-28 00:00:00             8.17           0.146              35.3
#> 10 2006-06-29 00:00:00             8.48           0.166              31.2
#> # … with 362 more rows, and 30 more variables: ws_mean_daylight <dbl>,
#> #   precip_mean_daylight <dbl>, ppfd_in_mean_daylight <dbl>,
#> #   rh_mean_daylight <dbl>, ext_rad_mean_daylight <dbl>, ta_sd_daylight <dbl>,
#> #   vpd_sd_daylight <dbl>, sw_in_sd_daylight <dbl>, ws_sd_daylight <dbl>,
#> #   precip_sd_daylight <dbl>, ppfd_in_sd_daylight <dbl>, rh_sd_daylight <dbl>,
#> #   ext_rad_sd_daylight <dbl>, ta_coverage_daylight <dbl>,
#> #   vpd_coverage_daylight <dbl>, sw_in_coverage_daylight <dbl>,
#> #   ws_coverage_daylight <dbl>, precip_coverage_daylight <dbl>,
#> #   ppfd_in_coverage_daylight <dbl>, rh_coverage_daylight <dbl>,
#> #   ext_rad_coverage_daylight <dbl>, ta_q_95_daylight <dbl>,
#> #   vpd_q_95_daylight <dbl>, sw_in_q_95_daylight <dbl>, ws_q_95_daylight <dbl>,
#> #   precip_q_95_daylight <dbl>, ppfd_in_q_95_daylight <dbl>,
#> #   rh_q_95_daylight <dbl>, ext_rad_q_95_daylight <dbl>,
#> #   precip_accumulated_daylight <dbl>

# change the daylight interval
AUS_CAN_ST2_MIX_daylight_short <- daylight_metrics(
  AUS_CAN_ST2_MIX, int_start = 8, int_end = 18 # night starting and ending hour
)
#> [1] "Crunching data for AUS_CAN_ST2_MIX. In large datasets this could take a while"
#> [1] "daylight data for AUS_CAN_ST2_MIX"
AUS_CAN_ST2_MIX_daylight_short[['env']]
#> # A tibble: 372 x 34
#>    TIMESTAMP_daylight  ta_mean_daylight vpd_mean_daylig… sw_in_mean_dayl…
#>    <dttm>                         <dbl>            <dbl>            <dbl>
#>  1 2006-06-20 00:00:00            12.6             0.116             67.3
#>  2 2006-06-21 00:00:00            13.1             0.250             49.4
#>  3 2006-06-22 00:00:00            14.5             0.185             81.0
#>  4 2006-06-23 00:00:00            13.2             0.162             76.3
#>  5 2006-06-24 00:00:00            11.3             0.236             46.2
#>  6 2006-06-25 00:00:00            11.2             0.358             81.8
#>  7 2006-06-26 00:00:00            11.3             0.283             51.8
#>  8 2006-06-27 00:00:00             9.05            0.201             42.8
#>  9 2006-06-28 00:00:00            10.1             0.204             49.4
#> 10 2006-06-29 00:00:00            10.6             0.232             43.3
#> # … with 362 more rows, and 30 more variables: ws_mean_daylight <dbl>,
#> #   precip_mean_daylight <dbl>, ppfd_in_mean_daylight <dbl>,
#> #   rh_mean_daylight <dbl>, ext_rad_mean_daylight <dbl>, ta_sd_daylight <dbl>,
#> #   vpd_sd_daylight <dbl>, sw_in_sd_daylight <dbl>, ws_sd_daylight <dbl>,
#> #   precip_sd_daylight <dbl>, ppfd_in_sd_daylight <dbl>, rh_sd_daylight <dbl>,
#> #   ext_rad_sd_daylight <dbl>, ta_coverage_daylight <dbl>,
#> #   vpd_coverage_daylight <dbl>, sw_in_coverage_daylight <dbl>,
#> #   ws_coverage_daylight <dbl>, precip_coverage_daylight <dbl>,
#> #   ppfd_in_coverage_daylight <dbl>, rh_coverage_daylight <dbl>,
…
# tidy daylight metrics
data('sfn_metadata_ex', package = 'sapfluxnetr')
AUS_CAN_ST2_MIX_daylight_tidy <- daylight_metrics(
  AUS_CAN_ST2_MIX,
  tidy = TRUE, metadata = sfn_metadata_ex
)
#> [1] "Crunching data for AUS_CAN_ST2_MIX. In large datasets this could take a while"
#> [1] "daylight data for AUS_CAN_ST2_MIX"
AUS_CAN_ST2_MIX_daylight_tidy
#> # A tibble: 12,648 x 125
#>    TIMESTAMP_daylight  si_code pl_code sapflow_centroi… sapflow_coverag…
#>    <dttm>              <chr>   <chr>              <dbl>            <dbl>
#>  1 2006-06-20 00:00:00 AUS_CA… AUS_CA…              NaN                0
#>  2 2006-06-20 00:00:00 AUS_CA… AUS_CA…              NaN                0
#>  3 2006-06-20 00:00:00 AUS_CA… AUS_CA…              NaN                0
#>  4 2006-06-20 00:00:00 AUS_CA… AUS_CA…              NaN                0
#>  5 2006-06-20 00:00:00 AUS_CA… AUS_CA…              NaN                0
#>  6 2006-06-20 00:00:00 AUS_CA… AUS_CA…              NaN                0
#>  7 2006-06-20 00:00:00 AUS_CA… AUS_CA…              NaN                0
#>  8 2006-06-20 00:00:00 AUS_CA… AUS_CA…              NaN                0
#>  9 2006-06-20 00:00:00 AUS_CA… AUS_CA…              NaN                0
#> 10 2006-06-20 00:00:00 AUS_CA… AUS_CA…              NaN                0
#> # … with 12,638 more rows, and 120 more variables: sapflow_mean_daylight <dbl>,
#> #   sapflow_q_95_daylight <dbl>, sapflow_sd_daylight <dbl>,
#> #   ta_mean_daylight <dbl>, vpd_mean_daylight <dbl>, sw_in_mean_daylight <dbl>,
#> #   ws_mean_daylight <dbl>, precip_mean_daylight <dbl>,
#> #   ppfd_in_mean_daylight <dbl>, rh_mean_daylight <dbl>,
#> #   ext_rad_mean_daylight <dbl>, ta_sd_daylight <dbl>, vpd_sd_daylight <dbl>,
#> #   sw_in_sd_daylight <dbl>, ws_sd_daylight <dbl>, precip_sd_daylight <dbl>,
#> #   ppfd_in_sd_daylight <dbl>, rh_sd_daylight <dbl>, ext_rad_sd_daylight <dbl>,
#> #   ta_coverage_daylight <dbl>, vpd_coverage_daylight <dbl>,
…
