Build a tidy data frame from the metrics results nested list — metrics_tidyfier • sapfluxnetr
…
# tidyfing
multi_tidy <- metrics_tidyfier(
  multi_metrics, sfn_metadata_ex, interval = 'general'
)
multi_tidy
#> # A tibble: 12,769 x 129
#>    TIMESTAMP           si_code pl_code sapflow_centroid sapflow_coverage
#>    <dttm>              <chr>   <chr>              <dbl>            <dbl>
#>  1 2006-06-20 00:00:00 AUS_CA… AUS_CA…              NaN                0
#>  2 2006-06-20 00:00:00 AUS_CA… AUS_CA…              NaN                0
#>  3 2006-06-20 00:00:00 AUS_CA… AUS_CA…              NaN                0
#>  4 2006-06-20 00:00:00 AUS_CA… AUS_CA…              NaN                0
#>  5 2006-06-20 00:00:00 AUS_CA… AUS_CA…              NaN                0
#>  6 2006-06-20 00:00:00 AUS_CA… AUS_CA…              NaN                0
#>  7 2006-06-20 00:00:00 AUS_CA… AUS_CA…              NaN                0
#>  8 2006-06-20 00:00:00 AUS_CA… AUS_CA…              NaN                0
#>  9 2006-06-20 00:00:00 AUS_CA… AUS_CA…              NaN                0
#> 10 2006-06-20 00:00:00 AUS_CA… AUS_CA…              NaN                0
#> # … with 12,759 more rows, and 124 more variables: sapflow_mean <dbl>,
#> #   sapflow_q_95 <dbl>, sapflow_sd <dbl>, ta_mean <dbl>, rh_mean <dbl>,
#> #   vpd_mean <dbl>, sw_in_mean <dbl>, ws_mean <dbl>, precip_mean <dbl>,
#> #   swc_shallow_mean <dbl>, ppfd_in_mean <dbl>, ext_rad_mean <dbl>,
#> #   ta_sd <dbl>, rh_sd <dbl>, vpd_sd <dbl>, sw_in_sd <dbl>, ws_sd <dbl>,
#> #   precip_sd <dbl>, swc_shallow_sd <dbl>, ppfd_in_sd <dbl>, ext_rad_sd <dbl>,
#> #   ta_coverage <dbl>, rh_coverage <dbl>, vpd_coverage <dbl>,
#> #   sw_in_coverage <dbl>, ws_coverage <dbl>, precip_coverage <dbl>,
#> #   swc_shallow_coverage <dbl>, ppfd_in_coverage <dbl>, ext_rad_coverage <dbl>,
…
